<?xml version="1.0" standalone="no"?>
<!DOCTYPE svg PUBLIC "-//W3C//DTD SVG 1.1//EN" "http://www.w3.org/Graphics/SVG/1.1/DTD/svg11.dtd" >
<svg xmlns="http://www.w3.org/2000/svg">
<metadata>Generated by IcoMoon</metadata>
<defs>
<font id="icomoon" horiz-adv-x="1024">
<font-face units-per-em="1024" ascent="960" descent="-64" />
<missing-glyph horiz-adv-x="1024" />
<glyph unicode="&#x20;" horiz-adv-x="512" d="" />
<glyph unicode="&#xe900;" glyph-name="facebook-with-circle" d="M512 952.32c-271.462 0-491.52-220.058-491.52-491.52s220.058-491.52 491.52-491.52 491.52 220.058 491.52 491.52-220.058 491.52-491.52 491.52zM628.429 612.659h-73.882c-8.755 0-18.483-11.52-18.483-26.829v-53.35h92.416l-13.978-76.083h-78.438v-228.403h-87.194v228.403h-79.104v76.083h79.104v44.749c0 64.205 44.544 116.378 105.677 116.378h73.882v-80.947z" />
<glyph unicode="&#xe901;" glyph-name="facebook" d="M870.4 921.6h-716.8c-56.32 0-102.4-46.080-102.4-102.4v-716.8c0-56.371 46.080-102.4 102.4-102.4h358.4v358.4h-102.4v126.72h102.4v104.96c0 110.797 62.054 188.621 192.819 188.621l92.314-0.102v-133.376h-61.286c-50.893 0-70.246-38.195-70.246-73.626v-86.528h131.482l-29.082-126.669h-102.4v-358.4h204.8c56.32 0 102.4 46.029 102.4 102.4v716.8c0 56.32-46.080 102.4-102.4 102.4z" />
<glyph unicode="&#xe902;" glyph-name="linkedin-with-circle" d="M512 952.32c-271.462 0-491.52-220.058-491.52-491.52s220.058-491.52 491.52-491.52 491.52 220.058 491.52 491.52-220.058 491.52-491.52 491.52zM391.68 257.075h-99.533v320.307h99.533v-320.307zM341.299 616.704c-31.437 0-51.763 22.272-51.763 49.818 0 28.109 20.941 49.715 53.043 49.715s51.763-21.606 52.378-49.715c0-27.546-20.275-49.818-53.658-49.818zM755.2 257.075h-99.533v177.51c0 41.318-14.438 69.376-50.432 69.376-27.494 0-43.827-18.995-51.046-37.274-2.662-6.502-3.328-15.718-3.328-24.883v-184.678h-99.584v218.112c0 39.987-1.28 73.421-2.611 102.195h86.477l4.557-44.493h1.997c13.107 20.89 45.21 51.712 98.918 51.712 65.485 0 114.586-43.878 114.586-138.189v-189.389z" />
<glyph unicode="&#xe903;" glyph-name="linkedin" d="M256 819.2c0-54.374-36.352-101.171-102.451-101.171-62.208 0-102.349 44.134-102.349 98.509 0 55.808 38.912 105.062 102.4 105.062s101.171-46.592 102.4-102.4zM51.2 0v665.6h204.8v-665.6h-204.8zM358.4 438.067c0 79.104-2.611 145.203-5.222 202.291h184.013l9.114-88.218h3.891c25.907 41.523 89.395 102.4 195.686 102.4 129.638 0 226.918-86.784 226.918-273.51v-381.030h-204.8v351.283c0 81.613-31.078 143.872-102.4 143.872-54.374 0-81.613-44.032-95.898-80.333-5.222-13.005-6.502-31.13-6.502-49.306v-365.517h-204.8v438.067z" />
<glyph unicode="&#xe904;" glyph-name="pinterest-with-circle" d="M512 952.32c-271.462 0-491.52-220.058-491.52-491.52s220.058-491.52 491.52-491.52 491.52 220.058 491.52 491.52-220.058 491.52-491.52 491.52zM545.638 344.32c-31.539 2.406-44.749 18.022-69.427 32.973-13.568-71.219-30.157-139.52-79.309-175.206-15.206 107.725 22.221 188.518 39.629 274.381-29.645 49.92 3.533 150.323 66.099 125.645 76.954-30.515-66.662-185.6 29.747-205.005 100.659-20.173 141.773 174.694 79.36 237.978-90.214 91.494-262.502 2.099-241.306-128.87 5.12-32 38.246-41.728 13.21-85.914-57.702 12.8-74.957 58.317-72.704 118.989 3.533 99.328 89.242 168.909 175.155 178.483 108.698 12.083 210.688-39.885 224.819-142.182 15.821-115.405-49.101-240.282-165.274-231.27z" />
<glyph unicode="&#xe905;" glyph-name="pinterest" d="M441.19 295.578c-26.931-141.005-59.75-276.173-157.082-346.778-30.003 213.094 44.083 373.094 78.541 542.976-58.726 98.816 7.066 297.574 130.816 248.576 152.32-60.211-131.891-367.206 58.88-405.606 199.219-39.987 280.525 345.6 156.979 470.989-178.432 181.146-519.475 4.25-477.491-255.078 10.189-63.386 75.674-82.586 26.163-170.086-114.227 25.293-148.326 115.405-143.923 235.52 7.066 196.608 176.589 334.182 346.675 353.28 215.091 24.115 416.973-79.002 444.877-281.293 31.386-228.403-97.075-475.802-327.117-457.984-62.362 4.864-88.474 35.789-137.318 65.485z" />
<glyph unicode="&#xe906;" glyph-name="tumblr-with-circle" d="M512 952.32c-271.462 0-491.52-220.058-491.52-491.52s220.058-491.52 491.52-491.52 491.52 220.058 491.52 491.52-220.058 491.52-491.52 491.52zM643.942 248.781c-20.122-9.626-38.298-16.282-54.579-20.224-16.282-3.789-33.894-5.786-52.787-5.786-21.504 0-40.499 2.816-57.037 8.294s-30.618 13.312-42.291 23.501c-11.674 10.086-19.763 20.992-24.269 32.41-4.506 11.52-6.758 28.109-6.758 49.818v167.014h-52.019v67.277c18.381 6.093 34.304 14.797 47.462 26.214 13.158 11.315 23.757 24.883 31.693 40.806 7.987 15.872 13.466 36.198 16.486 60.672h66.918v-120.32h111.616v-74.65h-111.616v-122.112c0-27.597 1.434-45.312 4.352-53.094 2.867-7.885 8.243-14.080 16.128-18.79 10.445-6.298 22.374-9.472 35.686-9.472 23.859 0 47.514 7.885 71.066 23.603v-75.162z" />
<glyph unicode="&#xe907;" glyph-name="tumblr" d="M798.72 41.165c-39.782-18.995-75.776-32.307-107.981-39.987-32.256-7.578-67.123-11.418-104.602-11.418-42.547 0-80.179 5.478-112.896 16.282-32.717 10.906-60.57 26.419-83.712 46.49-23.091 20.224-39.117 41.574-48.026 64.205-8.909 22.682-13.363 55.603-13.363 98.611v330.496h-102.861v133.325c36.557 11.981 67.891 29.184 93.952 51.712 26.112 22.426 47.002 49.408 62.822 80.896 15.77 31.386 26.573 71.475 32.563 120.064h132.352v-238.182h220.877v-147.814h-220.877v-241.613c0-54.579 2.867-89.702 8.602-105.216 5.683-15.514 16.333-27.904 31.846-37.12 20.634-12.493 44.186-18.79 70.707-18.79 47.104 0 94.003 15.514 140.595 46.49v-148.429z" />
<glyph unicode="&#xe908;" glyph-name="twitter-with-circle" d="M512 952.32c-271.462 0-491.52-220.058-491.52-491.52s220.058-491.52 491.52-491.52 491.52 220.058 491.52 491.52-220.058 491.52-491.52 491.52zM711.936 549.683c0.205-4.198 0.256-8.397 0.256-12.493 0-128-97.331-275.507-275.405-275.507-54.682 0-105.574 15.974-148.378 43.52 7.526-0.922 15.258-1.28 23.091-1.28 45.363 0 87.091 15.411 120.218 41.421-42.342 0.819-78.080 28.774-90.419 67.174 5.888-1.075 11.93-1.69 18.176-1.69 8.806 0 17.408 1.178 25.498 3.379-44.288 8.909-77.67 48.026-77.67 94.925v1.178c13.056-7.219 28.006-11.622 43.878-12.134-26.010 17.408-43.059 47.002-43.059 80.64 0 17.715 4.762 34.406 13.107 48.691 47.77-58.573 119.040-97.075 199.526-101.222-1.69 7.117-2.509 14.49-2.509 22.118 0 53.402 43.315 96.819 96.819 96.819 27.802 0 52.992-11.776 70.656-30.618 22.067 4.403 42.752 12.39 61.44 23.501-7.219-22.579-22.528-41.574-42.547-53.606 19.61 2.406 38.246 7.578 55.603 15.309-12.954-19.405-29.389-36.506-48.282-50.125z" />
<glyph unicode="&#xe909;" glyph-name="twitter" d="M886.579 653.005c0.41-8.294 0.563-16.691 0.563-24.986 0-255.488-194.406-549.99-549.888-549.99-109.21 0-210.739 32-296.294 86.886 15.155-1.792 30.515-2.714 46.080-2.714 90.624 0 173.926 30.925 240.026 82.688-84.531 1.587-155.955 57.395-180.531 134.195 11.776-2.202 23.91-3.379 36.352-3.379 17.664 0 34.765 2.304 50.944 6.707-88.422 17.818-155.034 95.898-155.034 189.594 0 0.819 0 1.587 0 2.406 26.061-14.49 55.91-23.194 87.552-24.218-51.866 34.714-86.016 93.798-86.016 160.922 0 35.379 9.523 68.608 26.214 97.178 95.283-116.992 237.773-193.894 398.387-201.984-3.277 14.182-4.966 28.877-4.966 44.083 0 106.701 86.477 193.178 193.229 193.178 55.603 0 105.83-23.398 141.107-60.979 43.981 8.704 85.35 24.781 122.726 46.899-14.438-45.107-45.107-82.995-84.992-106.906 39.117 4.71 76.288 15.002 111.002 30.413-25.907-38.81-58.675-72.806-96.461-99.994z" />
<glyph unicode="&#xe90a;" glyph-name="vimeo-with-circle" d="M512 952.32c-271.462 0-491.52-220.058-491.52-491.52s220.058-491.52 491.52-491.52 491.52 220.058 491.52 491.52-220.058 491.52-491.52 491.52zM737.331 555.52c-26.010-149.299-171.418-275.814-215.091-304.691-43.725-28.774-83.661 11.622-98.099 42.189-16.589 34.918-66.202 223.898-79.206 239.616-13.005 15.667-52.019-15.718-52.019-15.718l-18.893 25.293c0 0 79.206 96.41 139.469 108.39 63.898 12.8 63.795-99.891 79.155-162.509 14.899-60.57 24.883-95.181 37.837-95.181 13.005 0 37.837 33.69 64.973 85.504 27.238 51.814-1.126 97.587-54.323 65.024 21.248 130.048 222.208 161.382 196.198 12.083z" />
<glyph unicode="&#xe90b;" glyph-name="vimeo" d="M968.192 673.792c-51.507-295.578-339.2-545.792-425.728-602.982-86.528-57.088-165.53 22.886-194.15 83.507-32.819 68.966-131.021 443.187-156.774 474.163-25.754 31.027-102.912-30.976-102.912-30.976l-37.427 49.971c0 0 156.723 190.72 276.019 214.579 126.464 25.242 126.259-197.837 156.672-321.638 29.389-119.91 49.203-188.416 74.906-188.416s74.854 66.816 128.614 169.216c53.914 102.605-2.304 193.126-107.571 128.717 42.138 257.382 439.859 319.283 388.352 23.859z" />
<glyph unicode="&#xe90c;" glyph-name="youtube-with-circle" d="M594.074 469.35l-114.995 53.658c-10.035 4.659-18.278-0.563-18.278-11.674v-101.069c0-11.11 8.243-16.333 18.278-11.674l114.944 53.658c10.086 4.71 10.086 12.39 0.051 17.101zM512 952.32c-271.462 0-491.52-220.058-491.52-491.52s220.058-491.52 491.52-491.52 491.52 220.058 491.52 491.52-220.058 491.52-491.52 491.52zM512 261.12c-251.597 0-256 22.682-256 199.68s4.403 199.68 256 199.68 256-22.682 256-199.68-4.403-199.68-256-199.68z" />
<glyph unicode="&#xe90d;" glyph-name="youtube" d="M512 855.040c-503.194 0-512-44.749-512-394.24s8.806-394.24 512-394.24 512 44.749 512 394.24-8.806 394.24-512 394.24zM676.096 443.699l-229.888-107.315c-20.122-9.318-36.608 1.126-36.608 23.347v202.138c0 22.17 16.486 32.666 36.608 23.347l229.888-107.315c20.122-9.421 20.122-24.781 0-34.202z" />
</font></defs></svg>